<?xml version="1.0" encoding="utf-8"?>
<!-- Generator: Adobe Illustrator 20.0.0, SVG Export Plug-In . SVG Version: 6.00 Build 0)  -->
<svg version="1.1" id="Layer_1" xmlns="http://www.w3.org/2000/svg" xmlns:xlink="http://www.w3.org/1999/xlink" x="0px" y="0px"
	 viewBox="0 0 80 80" style="enable-background:new 0 0 80 80;" xml:space="preserve">
<style type="text/css">
	.st0{fill:#A5C442;}
</style>
<g>
	<path class="st0" d="M18.1,55.8c-0.6-0.7-1.1-1.6-1.1-2.9c0-1.2,0.4-2.1,1-2.8c0.6-0.7,1.5-1.1,2.4-1.1c1.6,0,2.8,1.2,2.8,2.2
		c0,0.5-0.3,0.9-0.8,0.9c-0.2,0-0.4-0.1-0.6-0.2c-0.2-0.1-0.3-0.4-0.3-0.6c0-0.3,0.2-0.5,0.3-0.6c-0.2-0.4-0.6-0.7-1.3-0.7
		c-0.6,0-1,0.3-1.4,0.8c-0.3,0.5-0.5,1.3-0.5,2.2c0,0.9,0.2,1.6,0.6,2.2c0.4,0.5,0.8,0.8,1.4,0.8c0.7,0,1.1-0.3,1.3-0.7
		c-0.1-0.1-0.3-0.3-0.3-0.6c0-0.3,0.1-0.5,0.2-0.6c0.2-0.1,0.4-0.2,0.6-0.2c0.5,0,0.8,0.4,0.8,0.9c0,1-1.2,2.2-2.8,2.2
		C19.6,56.8,18.7,56.4,18.1,55.8 M41.7,53.2c0.1,0,0.1,0,0.2-0.1c0,0,0-0.1,0-0.2c0-0.5-0.4-1-1-1c-0.8,0-1.1,0.6-1.1,1.2H41.7z
		 M26.5,54.1c-0.6,0-1,0.3-1,0.8c0,0.5,0.4,0.9,0.9,0.9c0.4,0,0.7-0.2,0.9-0.5v-0.8c0-0.1-0.1-0.2-0.2-0.3
		C27,54.1,26.8,54.1,26.5,54.1 M48.9,53.7c0,1.5,0.6,2.1,1.3,2.1c0.7,0,1.2-0.6,1.2-1.9c0-0.6-0.1-1.2-0.4-1.5
		c-0.2-0.4-0.6-0.5-0.9-0.5C49.4,51.9,48.9,52.6,48.9,53.7 M30.3,56.6c-0.2-0.1-0.4-0.2-0.4-0.4c0-0.1,0-0.2,0.1-0.2l0,0l0,0
		c0.1,0,0.2-0.1,0.4-0.2c0.1-0.1,0.2-0.3,0.2-0.7v-2.2c0-0.4-0.1-0.5-0.4-0.5c-0.1,0-0.2,0-0.2,0l-0.1,0l0,0c0-0.1-0.1-0.2-0.1-0.2
		c0-0.4,0.5-0.7,0.8-0.8c0.1,0,0.2-0.1,0.4-0.1c0.4,0,0.7,0.3,0.8,0.7c0.3-0.5,0.8-0.8,1.2-0.8c0.4,0,0.9,0.3,0.9,0.8
		c0,0.4-0.3,0.8-0.7,0.8c-0.3,0-0.6-0.2-0.7-0.5c-0.3,0.1-0.6,0.4-0.6,1.5V55c0,0.4,0.1,0.6,0.2,0.7c0.1,0.1,0.4,0.1,0.5,0.2l0,0
		l0,0c0,0.1,0.1,0.2,0.1,0.3c0,0.2-0.1,0.3-0.4,0.4c-0.2,0.1-0.5,0.1-1,0.1C30.9,56.6,30.5,56.6,30.3,56.6 M34.8,56.6
		c-0.2-0.1-0.4-0.2-0.4-0.4c0-0.1,0-0.2,0.1-0.2l0,0l0,0c0.1,0,0.2-0.1,0.4-0.2c0.1-0.1,0.2-0.3,0.2-0.7v-2.2c0-0.4-0.1-0.5-0.4-0.5
		c-0.1,0-0.2,0-0.2,0l0,0l0,0c0-0.1-0.1-0.2-0.1-0.2c0-0.4,0.5-0.7,0.8-0.8c0.1,0,0.3-0.1,0.4-0.1c0.4,0,0.7,0.3,0.8,0.7
		c0.3-0.5,0.8-0.8,1.2-0.8c0.4,0,0.9,0.3,0.9,0.8c0,0.4-0.3,0.8-0.7,0.8c-0.3,0-0.6-0.2-0.7-0.5c-0.3,0.1-0.6,0.4-0.6,1.5V55
		c0,0.4,0.1,0.6,0.2,0.7c0.1,0.1,0.4,0.1,0.5,0.2l0,0l0,0c0,0.1,0.1,0.2,0.1,0.3c0,0.2-0.1,0.3-0.4,0.4c-0.2,0.1-0.5,0.1-1,0.1
		C35.3,56.6,35,56.6,34.8,56.6 M44.2,56.6c-0.2-0.1-0.4-0.2-0.4-0.4c0-0.1,0-0.2,0.1-0.2l0,0l0,0c0.1,0,0.2-0.1,0.4-0.2
		c0.1-0.1,0.2-0.3,0.2-0.7v-2.9l-0.8,0l0,0c0-0.1-0.1-0.2-0.1-0.3c0-0.3,0.2-0.5,0.5-0.5h0.3v-0.3c0-0.8,0.1-1.2,0.3-1.5
		c0.3-0.5,0.8-0.8,1.7-0.8c1,0,1.9,0.5,1.9,1.2c0,0.3-0.2,0.7-0.7,0.7c-0.4,0-0.7-0.3-0.7-0.7c0-0.1,0-0.3,0.1-0.4
		c-0.1-0.1-0.3-0.2-0.5-0.1c-0.3,0-0.5,0.1-0.6,0.3c-0.1,0.2-0.1,0.5-0.1,0.8v0.8h1.4l0,0c0,0.1,0.1,0.2,0.1,0.3
		c0,0.3-0.2,0.5-0.5,0.5c-0.1,0-0.2,0-0.3,0c-0.2,0-0.4,0-0.6,0V55c0,0.4,0.1,0.6,0.2,0.7c0.1,0.1,0.5,0.1,0.6,0.2l0,0l0,0
		c0,0.1,0.1,0.2,0.1,0.2c0,0.2-0.2,0.3-0.4,0.4c-0.2,0.1-0.6,0.1-1.1,0.1C44.8,56.6,44.5,56.6,44.2,56.6 M60.3,56.6
		c-0.2-0.1-0.4-0.2-0.4-0.4c0-0.1,0-0.2,0.1-0.2l0,0l0,0c0.1,0,0.2-0.1,0.4-0.2c0.1-0.1,0.2-0.3,0.2-0.7v-2.2c0-0.4-0.1-0.5-0.4-0.5
		c-0.1,0-0.2,0-0.2,0l0,0l0,0c0-0.1,0-0.2,0-0.2c0-0.5,0.5-0.7,0.8-0.8c0.1,0,0.3-0.1,0.4-0.1c0.4,0,0.7,0.3,0.8,0.7
		c0.3-0.5,0.8-0.8,1.2-0.8c0.4,0,0.9,0.3,0.9,0.8c0,0.4-0.3,0.8-0.7,0.8c-0.3,0-0.6-0.2-0.7-0.5c-0.3,0.1-0.6,0.4-0.6,1.5V55
		c0,0.4,0.1,0.6,0.2,0.7c0.1,0.1,0.4,0.1,0.5,0.2l0,0l0,0c0,0.1,0.1,0.2,0.1,0.3c0,0.2-0.1,0.3-0.3,0.4c-0.2,0.1-0.5,0.1-1,0.1
		C60.9,56.6,60.6,56.6,60.3,56.6 M50.1,56.7c-0.7,0-1.4-0.3-1.9-0.8c-0.5-0.5-0.8-1.2-0.8-2c0-1.7,1.3-2.8,2.8-2.8
		c0.8,0,1.5,0.3,2,0.8c0.5,0.5,0.8,1.2,0.8,2c0,0.8-0.3,1.5-0.8,2C51.6,56.4,50.9,56.7,50.1,56.7 M38.4,54c0-0.8,0.3-1.6,0.8-2.1
		c0.5-0.5,1.2-0.8,2-0.8c0.7,0,1.3,0.3,1.7,0.7c0.4,0.4,0.5,0.9,0.5,1.4c0,0.3-0.1,0.5-0.2,0.8l0,0h-3.3c0.1,1,0.7,1.7,1.7,1.7
		c0.7,0,1.2-0.4,1.3-0.6l0,0l0,0c0.1,0.1,0.2,0.2,0.2,0.4c0,0.6-0.7,1.3-2.1,1.3C39.6,56.7,38.4,55.5,38.4,54 M57.5,56.5
		c-0.1-0.1-0.1-0.3-0.2-0.5c-0.1,0.1-0.1,0.1-0.2,0.2c-0.4,0.3-0.8,0.5-1.3,0.5c-0.6,0-1.1-0.2-1.4-0.6c-0.5-0.6-0.5-1.3-0.5-2.3v-1
		c0-0.4-0.1-0.5-0.5-0.5c-0.1,0-0.1,0-0.2,0l0,0l0,0c0-0.1,0-0.1,0-0.2c0-0.5,0.6-0.7,1-0.8c0.1,0,0.2,0,0.4,0
		c0.3,0,0.5,0.1,0.6,0.3c0.1,0.2,0.2,0.4,0.2,0.7l0,1.7c0,0.6,0,1.1,0.2,1.4c0.1,0.3,0.3,0.4,0.7,0.4c0.4,0,0.7-0.2,0.8-0.5
		c0.2-0.3,0.2-0.6,0.2-1v-1.4c0-0.4-0.1-0.5-0.5-0.5c-0.1,0-0.1,0-0.2,0l0,0l0,0c0-0.1,0-0.1,0-0.2c0-0.5,0.6-0.7,1-0.8
		c0.1,0,0.2,0,0.4,0c0.3,0,0.5,0.1,0.6,0.3c0.1,0.2,0.2,0.4,0.2,0.7c0,0.2,0,0.5,0,2c0,0.6,0,0.9,0,1c0,0.4,0.1,0.6,0.5,0.6
		c0,0,0.1,0,0.1,0l0,0l0,0c0,0.1,0,0.1,0,0.2c0,0.5-0.6,0.7-1,0.7c-0.1,0-0.2,0-0.3,0h0C57.8,56.7,57.7,56.6,57.5,56.5 M24,55
		c0-0.5,0.2-1,0.6-1.3c0.4-0.3,0.9-0.4,1.6-0.4c0.4,0,0.8,0.1,1.1,0.2v-0.6c0-0.6-0.2-0.9-0.9-1c-0.1,0-0.4,0-0.6,0.1
		c0,0.1,0,0.2,0,0.3c0,0.2-0.1,0.4-0.2,0.5C25.5,53,25.3,53,25.1,53c-0.4,0-0.7-0.3-0.7-0.7c0-0.7,0.9-1.2,2.1-1.2
		c0.9,0,1.5,0.2,1.8,0.6c0.3,0.4,0.3,0.9,0.3,1.6v2c0,0.4,0.2,0.5,0.7,0.6l0.1,0l0,0.1c0,0.5-0.4,0.7-0.8,0.8c0,0-0.1,0-0.1,0
		c-0.4,0-0.8-0.2-1-0.6c-0.3,0.2-0.8,0.6-1.6,0.6C24.9,56.7,24,56,24,55"/>
	<path class="st0" d="M27,1.4c0.1-0.1,0.2-0.2,0.3-0.2c0.2,0,0.3,0.1,0.3,0.3c0,0.1,0,0.2-0.2,0.3c-4.1,5.1-7,11-7,19.3
		c0,8.2,3,14.1,7,19.2c0.1,0.1,0.2,0.2,0.2,0.3c0,0.2-0.1,0.3-0.3,0.3c-0.1,0-0.2,0-0.3-0.2L9.7,24c-0.9-0.7-1.4-1.6-1.4-2.9
		c0-1.2,0.6-2.1,1.4-2.9L27,1.4z"/>
	<path class="st0" d="M40.4,0c-6.8,0-9.5,9.7-9.5,21.2c0,11.5,2.7,21.1,9.5,21.1c4.1,0,7.6-2.4,7.6-4.4c0-0.4-0.2-0.8-0.5-1.2
		c-1.9-1.9-2.7-3.8-2.7-5.4c0-3.2,2.7-5.5,5.2-5.5c3.5,0,5.5,2.7,5.5,6.3c0,3.3-1.4,6.1-3,8.4c-0.1,0.1-0.1,0.2-0.1,0.3
		c0,0.2,0.1,0.3,0.3,0.3c0.1,0,0.2-0.1,0.3-0.2L70.3,24c0.9-0.7,1.4-1.6,1.4-2.9c0-1.2-0.6-2.1-1.4-2.9L53,1.4
		c-0.1-0.1-0.2-0.2-0.3-0.2c-0.2,0-0.3,0.1-0.3,0.3c0,0.1,0,0.2,0.1,0.3c1.5,2.2,3,5,3,8.4c0,3.5-2,6.3-5.5,6.3
		c-2.5,0-5.2-2.3-5.2-5.5c0-1.7,0.8-3.5,2.7-5.4c0.4-0.4,0.5-0.8,0.5-1.2C47.9,2.4,44.4,0,40.4,0"/>
	<path class="st0" d="M4.7,68.7c3.7,0,4.8-1,4.8-2c0-0.8-0.7-1.5-2.3-1.5c-2.1,0-3.9,1.5-4.6,3.4C3.4,68.6,4.1,68.7,4.7,68.7
		 M2.2,70.7c0,1.8,1.1,3.1,3.2,3.1c1.7,0,2.8-0.7,3.7-1.8c0-0.1,1.1,0.2,1.1,1c0,0.5-0.1,0.8-0.6,1.2c-1,0.9-2.3,1.5-4.3,1.5
		c-3.5,0-5.3-2.1-5.3-4.8c0-4.2,3.2-7.4,7.3-7.4c2.8,0,4.3,1.3,4.3,3.2c0,2.3-1.5,3.8-6.7,3.8c-0.8,0-1.7-0.1-2.7-0.1
		C2.2,70.4,2.2,70.5,2.2,70.7"/>
	<path class="st0" d="M11.1,74.3c0-0.5,0.3-0.9,0.9-1.4l3.6-3.5l-2.6-5.1c-0.1-0.1,0.4-0.8,1.3-0.8c0.7,0,1.1,0.4,1.4,1.3l1.6,3.4
		l4.7-4.8c0,0,1.3,0.3,1.3,1.2c0,0.5-0.3,0.9-0.9,1.4l-3.9,3.8l1,1.9c0.8,1.7,1.4,1.9,2.5,2c0.1,0,0.1,1.7-1.5,1.7
		c-1.2,0-2-0.5-3.1-3L16.8,71l-4.4,4.5C12.4,75.5,11.1,75.2,11.1,74.3"/>
	<path class="st0" d="M26.9,69.7c-0.4,2,0.8,3.9,3.2,3.9c2.6,0,4-2.5,4-5c0-2.1-1.3-3.3-3-3.3c-1.5,0-3,1-3.8,2.4L26.9,69.7z
		 M31.8,63.4c2.5,0,4.7,1.8,4.7,5.1c0,3.6-2.5,7.1-6.2,7.1c-2,0-3.4-1.1-4.1-2.4l-1.2,5.7c-0.2,0.8-0.5,1.1-1.1,1.1h-0.3
		c-0.6,0-1.2-0.3-1-1.1l3.2-15.2c0,0,0.3-0.1,0.6-0.1c0.8,0,1.6,0.4,1.3,2.1C28.7,64.2,30,63.4,31.8,63.4"/>
	<path class="st0" d="M44.8,63.4c1,0,1.8,0.5,1.8,1.3c0,1.2-1,1.6-1,1.5c-0.3-0.4-0.8-0.7-1.5-0.7c-1.7,0-2.8,2.1-3.4,4.9l-0.8,3.7
		c-0.2,0.8-0.5,1.1-1.1,1.1h-0.3c-0.6,0-1.2-0.3-1-1.1l2.2-10.5c0,0,0.3-0.1,0.6-0.1c0.8,0,1.6,0.4,1.3,2
		C42.4,64.1,43.5,63.4,44.8,63.4"/>
	<path class="st0" d="M51.3,68.7c3.7,0,4.8-1,4.8-2c0-0.8-0.7-1.5-2.3-1.5c-2.1,0-3.9,1.5-4.6,3.4C50,68.6,50.7,68.7,51.3,68.7
		 M48.8,70.7c0,1.8,1.1,3.1,3.2,3.1c1.7,0,2.8-0.7,3.7-1.8c0-0.1,1.1,0.2,1.1,1c0,0.5-0.1,0.8-0.6,1.2c-1,0.9-2.3,1.5-4.3,1.5
		c-3.5,0-5.3-2.1-5.3-4.8c0-4.2,3.2-7.4,7.3-7.4c2.8,0,4.3,1.3,4.3,3.2c0,2.3-1.5,3.8-6.7,3.8c-0.8,0-1.7-0.1-2.7-0.1
		C48.8,70.4,48.8,70.5,48.8,70.7"/>
	<path class="st0" d="M59,74c-0.4-0.4-0.6-0.8-0.6-1.2c0-0.8,0.9-1.3,1-1.2c0.8,1.2,2.2,2.1,4,2.1c1.5,0,2.4-0.6,2.4-1.6
		c0-0.9-0.9-1.2-2.4-1.7c-1.7-0.6-3.4-1.3-3.4-3.4c0-2.1,1.8-3.6,4.5-3.6c1.8,0,3.2,0.6,4,1.4c0.4,0.4,0.6,0.8,0.6,1.2
		c0,0.9-1,1.3-1.1,1.2c-0.7-1.1-2-2-3.6-2c-1.5,0-2.2,0.7-2.2,1.6c0,0.9,1,1.3,2.5,1.9c1.7,0.6,3.4,1.3,3.4,3.3
		c0,2.2-1.7,3.6-4.6,3.6C61.4,75.6,59.8,74.9,59,74"/>
	<path class="st0" d="M70,74c-0.4-0.4-0.6-0.8-0.6-1.2c0-0.8,0.9-1.3,1-1.2c0.8,1.2,2.2,2.1,4,2.1c1.5,0,2.4-0.6,2.4-1.6
		c0-0.9-0.9-1.2-2.4-1.7c-1.7-0.6-3.4-1.3-3.4-3.4c0-2.1,1.8-3.6,4.5-3.6c1.8,0,3.2,0.6,4,1.4c0.4,0.4,0.6,0.8,0.6,1.2
		c0,0.9-1,1.3-1.1,1.2c-0.6-1.1-2-2-3.6-2c-1.5,0-2.2,0.7-2.2,1.6c0,0.9,1,1.3,2.5,1.9c1.7,0.6,3.4,1.3,3.4,3.3
		c0,2.2-1.7,3.6-4.6,3.6C72.4,75.6,70.8,74.9,70,74"/>
</g>
</svg>
