{
  "lastModified": "2017-06-23T14:33:54.078Z",
  "marketingCloud": {
    "org": "AD41C241579F60667F000101@AdobeOrg"
  },
  "target": {
    "clientCode": "carrefourbelgium",
    "timeout": 5
  },
  "audienceManager": {
    "server": "",
    "analyticsForwardingEnabled": false,
    "timeout": 5
  },
  "acquisition": {
    "server": "c00.adobe.com",
    "appid": "cbd94ea0bf20944888c8223133c551f967080c27b4c2f3d57efe249e4f6397b4"
  },
  "analytics": {
    "rsids": "cbglobalstaging",
    "server": "carrefourbelgium.sc.omtrdc.net",
    "ssl": true,
    "offlineEnabled": false,
    "charset": "UTF-8",
    "lifecycleTimeout": 300,
    "privacyDefault": "optedin",
    "batchLimit": 0,
    "timezone": "CEST",
    "timezoneOffset": 120,
    "referrerTimeout": 5,
    "backdateSessionInfo": false,
    "poi": []
  },
  "messages": [],
  "remotes": {
    "analytics.poi": "https://assets.adobedtm.com/b213090c5204bf94318f4ef0539a38b487d10368/scripts/satellite-592d743364746d543b001bbf.json",
    "messages": "https://assets.adobedtm.com/b213090c5204bf94318f4ef0539a38b487d10368/scripts/satellite-592d743364746d68b8000f2b.json"
  }
}