[{
    "catID": "CAT_BRAND",
    "name": "Type de magasin"
}, {
    "catID": "CAT_HOURS",
    "sortOrder": 5,
    "name": "Heures d'ouverture"
}, {
    "catID": "CAT_IN_CAR",
    "sortOrder": 6,
    "name": "En Voiture"
}, {
    "catID": "CAT_SERVICES",
    "sortOrder": 14,
    "name": "Services"
}, {
    "catID": "CAT_RETRAIT_LIVRAISON",
    "sortOrder": 33,
    "name": "Retrait et Livraison"
}, {
    "catID": "CAT_TELEPHONIE_POSTE_PAPIER",
    "sortOrder": 36,
    "name": "Téléphonie, poste et papier"
}, {
    "catID": "CAT_FINANCE_JEUX_CARTES",
    "sortOrder": 47,
    "name": "Finance, Jeux et Cartes"
}, {
    "catID": "CAT_GALERIE_MARCHANDE",
    "sortOrder": 60,
    "name": "Galerie Marchande"
}]
