<?xml version="1.0" encoding="utf-8"?>
<!-- Generator: Adobe Illustrator 20.1.0, SVG Export Plug-In . SVG Version: 6.00 Build 0)  -->
<svg version="1.1" id="Layer_1" xmlns="http://www.w3.org/2000/svg" xmlns:xlink="http://www.w3.org/1999/xlink" x="0px" y="0px"
	 viewBox="0 0 154.9 102.7" style="enable-background:new 0 0 154.9 102.7;" xml:space="preserve">
<style type="text/css">
	.st0{fill:#5E5E5E;}
	.st1{fill:#494949;}
</style>
<title>nav-logo</title>
<path class="st0" d="M45.8,3.5c0.2-0.2,0.5-0.4,0.8-0.4c0.4,0,0.7,0.4,0.7,0.7c0,0,0,0,0,0c0,0.3-0.2,0.6-0.4,0.8
	C36.9,17,29.7,31.5,29.7,51.5S36.9,85.7,46.9,98c0.2,0.2,0.4,0.5,0.4,0.8c0,0.4-0.2,0.7-0.6,0.8c0,0,0,0,0,0c-0.3,0-0.6-0.2-0.8-0.4
	L3.5,58.3c-3.8-2.9-4.6-8.3-1.7-12.1c0.5-0.7,1.1-1.2,1.7-1.7L45.8,3.5z"/>
<path class="st1" d="M78.4,0C61.8,0,55.3,23.5,55.3,51.5s6.5,51.2,23.1,51.2c9.9,0,18.4-5.8,18.5-10.6c0-1.1-0.5-2.2-1.3-2.9
	C90.8,84.6,89,80,89,76c0-7.7,6.6-13.4,12.8-13.4c8.4,0,13.4,6.6,13.4,15.2c0,8.1-3.5,14.9-7.2,20.3c-0.1,0.2-0.2,0.4-0.2,0.7
	c0,0.4,0.2,0.7,0.6,0.8c0,0,0,0,0,0c0.3,0,0.6-0.2,0.8-0.4l42.3-40.9c3.8-2.9,4.6-8.3,1.7-12.1c-0.5-0.7-1.1-1.2-1.7-1.7l-42.4-41
	c-0.2-0.2-0.5-0.4-0.8-0.4c-0.4,0-0.7,0.4-0.6,0.8c0,0,0,0,0,0c0,0.2,0.1,0.5,0.2,0.7c3.8,5.4,7.2,12.2,7.2,20.3
	c0,8.6-5,15.2-13.4,15.2c-6.1,0-12.8-5.7-12.8-13.4c0-4,1.9-8.6,6.6-13.1c0.8-0.8,1.3-1.8,1.3-2.9C96.8,5.8,88.3,0,78.4,0"/>
</svg>
