<?xml version="1.0" encoding="utf-8"?>
<!-- Generator: Adobe Illustrator 20.1.0, SVG Export Plug-In . SVG Version: 6.00 Build 0)  -->
<svg version="1.1" id="Layer_1" xmlns="http://www.w3.org/2000/svg" xmlns:xlink="http://www.w3.org/1999/xlink" x="0px" y="0px"
	 viewBox="0 0 68.6 108.2" style="enable-background:new 0 0 68.6 108.2;" xml:space="preserve">
<style type="text/css">
	.st0{opacity:0.8;fill:#FFFFFF;}
</style>
<path class="st0" d="M34.3,30.9c7.7,0,13.7-8,13.4-17.5C48,3.8,43.8-0.3,34.3,0c-9.5-0.3-13.7,3.8-13.4,13.4
	C20.6,22.9,26.6,30.9,34.3,30.9L34.3,30.9z"/>
<path class="st0" d="M68.6,47.7v6.8c0,1.5-1.2,2.7-2.7,2.7h-9.3l-2.2,16.3c0,1.6-1.3,3-3,3h-8.7v15.4h6.4c1.3,0,2.3,1,2.3,2.3V106
	c0,1.3-1,2.3-2.3,2.3H19.4c-1.3,0-2.3-1-2.3-2.3V94.2c0-1.3,1-2.3,2.3-2.3h6.4V76.5h-8.6c-1.6,0-3-1.4-3-3L12,57.1H2.7
	C1.2,57.1,0,56,0,54.5v-6.8C0,46.2,1.2,45,2.7,45h7.7l-1.2-8.6c0-1.6,1.3-3.2,3-3.5l12.3-2l7.8,7.8c1.2,1.2,3.1,1.2,4.2,0l7.8-7.8
	l12.3,2c1.6,0.3,3,1.8,3,3.5L58.3,45h7.6C67.4,45,68.6,46.2,68.6,47.7z"/>
</svg>
