{
  "lastModified": "2017-10-19T11:50:45.977Z",
  "marketingCloud": {
    "org": "AD41C241579F60667F000101@AdobeOrg"
  },
  "target": {
    "clientCode": "carrefourbelgium",
    "timeout": 5
  },
  "audienceManager": {
    "server": "",
    "analyticsForwardingEnabled": false,
    "timeout": 5
  },
  "acquisition": {
    "server": "c00.adobe.com",
    "appid": "2ff13b200c0663175a3c9d48a2d6b19b3b5dcfba82dbddf82ca3fcb47e910a49"
  },
  "analytics": {
    "rsids": "cbcarrefourprod",
    "server": "carrefourbelgium.sc.omtrdc.net",
    "ssl": true,
    "offlineEnabled": false,
    "charset": "UTF-8",
    "lifecycleTimeout": 300,
    "privacyDefault": "optedin",
    "batchLimit": 0,
    "timezone": "CEST",
    "timezoneOffset": 120,
    "referrerTimeout": 5,
    "backdateSessionInfo": false,
    "poi": []
  },
  "messages": [],
  "remotes": {
    "analytics.poi": "https://assets.adobedtm.com/b213090c5204bf94318f4ef0539a38b487d10368/scripts/satellite-592d76f864746d329900cd8f.json",
    "messages": "https://assets.adobedtm.com/b213090c5204bf94318f4ef0539a38b487d10368/scripts/satellite-592d76f864746d20ff001ae2.json"
  }
}